%YAML 1.1
%TAG !u! tag:unity3d.com,2011:
--- !u!1 &8904154818561135304
GameObject:
  m_ObjectHideFlags: 0
  m_CorrespondingSourceObject: {fileID: 0}
  m_PrefabInstance: {fileID: 0}
  m_PrefabAsset: {fileID: 0}
  serializedVersion: 6
  m_Component:
  - component: {fileID: 8904154818561135307}
  m_Layer: 0
  m_Name: Pivot
  m_TagString: Untagged
  m_Icon: {fileID: 0}
  m_NavMeshLayer: 0
  m_StaticEditorFlags: 0
  m_IsActive: 1
--- !u!4 &8904154818561135307
Transform:
  m_ObjectHideFlags: 0
  m_CorrespondingSourceObject: {fileID: 0}
  m_PrefabInstance: {fileID: 0}
  m_PrefabAsset: {fileID: 0}
  m_GameObject: {fileID: 8904154818561135304}
  m_LocalRotation: {x: 0, y: 0, z: 0, w: 1}
  m_LocalPosition: {x: -1, y: 0, z: 0}
  m_LocalScale: {x: 1, y: 1, z: 1}
  m_ConstrainProportionsScale: 0
  m_Children: []
  m_Father: {fileID: 8904154819331854891}
  m_RootOrder: 0
  m_LocalEulerAnglesHint: {x: 0, y: 0, z: 0}
--- !u!1 &8904154819331854888
GameObject:
  m_ObjectHideFlags: 0
  m_CorrespondingSourceObject: {fileID: 0}
  m_PrefabInstance: {fileID: 0}
  m_PrefabAsset: {fileID: 0}
  serializedVersion: 6
  m_Component:
  - component: {fileID: 8904154819331854891}
  - component: {fileID: 8904154819331854890}
  m_Layer: 0
  m_Name: Tetramino
  m_TagString: Untagged
  m_Icon: {fileID: 0}
  m_NavMeshLayer: 0
  m_StaticEditorFlags: 0
  m_IsActive: 1
--- !u!4 &8904154819331854891
Transform:
  m_ObjectHideFlags: 0
  m_CorrespondingSourceObject: {fileID: 0}
  m_PrefabInstance: {fileID: 0}
  m_PrefabAsset: {fileID: 0}
  m_GameObject: {fileID: 8904154819331854888}
  m_LocalRotation: {x: 0, y: 0, z: 0, w: 1}
  m_LocalPosition: {x: 4, y: 20, z: 0}
  m_LocalScale: {x: 1, y: 1, z: 1}
  m_ConstrainProportionsScale: 0
  m_Children:
  - {fileID: 8904154818561135307}
  - {fileID: 2617363316773117708}
  - {fileID: 2617363316388121361}
  - {fileID: 2617363317918833664}
  m_Father: {fileID: 0}
  m_RootOrder: 0
  m_LocalEulerAnglesHint: {x: 0, y: 0, z: 0}
--- !u!114 &8904154819331854890
MonoBehaviour:
  m_ObjectHideFlags: 0
  m_CorrespondingSourceObject: {fileID: 0}
  m_PrefabInstance: {fileID: 0}
  m_PrefabAsset: {fileID: 0}
  m_GameObject: {fileID: 8904154819331854888}
  m_Enabled: 1
  m_EditorHideFlags: 0
  m_Script: {fileID: 11500000, guid: 355c02c0bd87e624483a11d19552a1fc, type: 3}
  m_Name: 
  m_EditorClassIdentifier: 
  pivot: {fileID: 8904154818561135307}
--- !u!1001 &8904154818206686611
PrefabInstance:
  m_ObjectHideFlags: 0
  serializedVersion: 2
  m_Modification:
    m_TransformParent: {fileID: 8904154819331854891}
    m_Modifications:
    - target: {fileID: 6900455468112090754, guid: a551e0ddec790e343b7b704ff9578c35, type: 3}
      propertyPath: m_RootOrder
      value: 2
      objectReference: {fileID: 0}
    - target: {fileID: 6900455468112090754, guid: a551e0ddec790e343b7b704ff9578c35, type: 3}
      propertyPath: m_LocalPosition.x
      value: -1
      objectReference: {fileID: 0}
    - target: {fileID: 6900455468112090754, guid: a551e0ddec790e343b7b704ff9578c35, type: 3}
      propertyPath: m_LocalPosition.y
      value: 0
      objectReference: {fileID: 0}
    - target: {fileID: 6900455468112090754, guid: a551e0ddec790e343b7b704ff9578c35, type: 3}
      propertyPath: m_LocalPosition.z
      value: 0
      objectReference: {fileID: 0}
    - target: {fileID: 6900455468112090754, guid: a551e0ddec790e343b7b704ff9578c35, type: 3}
      propertyPath: m_LocalRotation.w
      value: 1
      objectReference: {fileID: 0}
    - target: {fileID: 6900455468112090754, guid: a551e0ddec790e343b7b704ff9578c35, type: 3}
      propertyPath: m_LocalRotation.x
      value: -0
      objectReference: {fileID: 0}
    - target: {fileID: 6900455468112090754, guid: a551e0ddec790e343b7b704ff9578c35, type: 3}
      propertyPath: m_LocalRotation.y
      value: -0
      objectReference: {fileID: 0}
    - target: {fileID: 6900455468112090754, guid: a551e0ddec790e343b7b704ff9578c35, type: 3}
      propertyPath: m_LocalRotation.z
      value: -0
      objectReference: {fileID: 0}
    - target: {fileID: 6900455468112090754, guid: a551e0ddec790e343b7b704ff9578c35, type: 3}
      propertyPath: m_LocalEulerAnglesHint.x
      value: 0
      objectReference: {fileID: 0}
    - target: {fileID: 6900455468112090754, guid: a551e0ddec790e343b7b704ff9578c35, type: 3}
      propertyPath: m_LocalEulerAnglesHint.y
      value: 0
      objectReference: {fileID: 0}
    - target: {fileID: 6900455468112090754, guid: a551e0ddec790e343b7b704ff9578c35, type: 3}
      propertyPath: m_LocalEulerAnglesHint.z
      value: 0
      objectReference: {fileID: 0}
    - target: {fileID: 6900455468112090755, guid: a551e0ddec790e343b7b704ff9578c35, type: 3}
      propertyPath: useFill
      value: 0
      objectReference: {fileID: 0}
    - target: {fileID: 6900455468112090757, guid: a551e0ddec790e343b7b704ff9578c35, type: 3}
      propertyPath: m_SortingOrder
      value: 1
      objectReference: {fileID: 0}
    - target: {fileID: 6900455468112090758, guid: a551e0ddec790e343b7b704ff9578c35, type: 3}
      propertyPath: m_Name
      value: Block (1)
      objectReference: {fileID: 0}
    m_RemovedComponents: []
  m_SourcePrefab: {fileID: 100100000, guid: a551e0ddec790e343b7b704ff9578c35, type: 3}
--- !u!4 &2617363316388121361 stripped
Transform:
  m_CorrespondingSourceObject: {fileID: 6900455468112090754, guid: a551e0ddec790e343b7b704ff9578c35, type: 3}
  m_PrefabInstance: {fileID: 8904154818206686611}
  m_PrefabAsset: {fileID: 0}
--- !u!1001 &8904154818627455374
PrefabInstance:
  m_ObjectHideFlags: 0
  serializedVersion: 2
  m_Modification:
    m_TransformParent: {fileID: 8904154819331854891}
    m_Modifications:
    - target: {fileID: 6900455468112090754, guid: a551e0ddec790e343b7b704ff9578c35, type: 3}
      propertyPath: m_RootOrder
      value: 1
      objectReference: {fileID: 0}
    - target: {fileID: 6900455468112090754, guid: a551e0ddec790e343b7b704ff9578c35, type: 3}
      propertyPath: m_LocalPosition.x
      value: 0
      objectReference: {fileID: 0}
    - target: {fileID: 6900455468112090754, guid: a551e0ddec790e343b7b704ff9578c35, type: 3}
      propertyPath: m_LocalPosition.y
      value: 0
      objectReference: {fileID: 0}
    - target: {fileID: 6900455468112090754, guid: a551e0ddec790e343b7b704ff9578c35, type: 3}
      propertyPath: m_LocalPosition.z
      value: 0
      objectReference: {fileID: 0}
    - target: {fileID: 6900455468112090754, guid: a551e0ddec790e343b7b704ff9578c35, type: 3}
      propertyPath: m_LocalRotation.w
      value: 1
      objectReference: {fileID: 0}
    - target: {fileID: 6900455468112090754, guid: a551e0ddec790e343b7b704ff9578c35, type: 3}
      propertyPath: m_LocalRotation.x
      value: -0
      objectReference: {fileID: 0}
    - target: {fileID: 6900455468112090754, guid: a551e0ddec790e343b7b704ff9578c35, type: 3}
      propertyPath: m_LocalRotation.y
      value: -0
      objectReference: {fileID: 0}
    - target: {fileID: 6900455468112090754, guid: a551e0ddec790e343b7b704ff9578c35, type: 3}
      propertyPath: m_LocalRotation.z
      value: -0
      objectReference: {fileID: 0}
    - target: {fileID: 6900455468112090754, guid: a551e0ddec790e343b7b704ff9578c35, type: 3}
      propertyPath: m_LocalEulerAnglesHint.x
      value: 0
      objectReference: {fileID: 0}
    - target: {fileID: 6900455468112090754, guid: a551e0ddec790e343b7b704ff9578c35, type: 3}
      propertyPath: m_LocalEulerAnglesHint.y
      value: 0
      objectReference: {fileID: 0}
    - target: {fileID: 6900455468112090754, guid: a551e0ddec790e343b7b704ff9578c35, type: 3}
      propertyPath: m_LocalEulerAnglesHint.z
      value: 0
      objectReference: {fileID: 0}
    - target: {fileID: 6900455468112090755, guid: a551e0ddec790e343b7b704ff9578c35, type: 3}
      propertyPath: useFill
      value: 0
      objectReference: {fileID: 0}
    - target: {fileID: 6900455468112090757, guid: a551e0ddec790e343b7b704ff9578c35, type: 3}
      propertyPath: m_SortingOrder
      value: 1
      objectReference: {fileID: 0}
    - target: {fileID: 6900455468112090758, guid: a551e0ddec790e343b7b704ff9578c35, type: 3}
      propertyPath: m_Name
      value: Block
      objectReference: {fileID: 0}
    m_RemovedComponents: []
  m_SourcePrefab: {fileID: 100100000, guid: a551e0ddec790e343b7b704ff9578c35, type: 3}
--- !u!4 &2617363316773117708 stripped
Transform:
  m_CorrespondingSourceObject: {fileID: 6900455468112090754, guid: a551e0ddec790e343b7b704ff9578c35, type: 3}
  m_PrefabInstance: {fileID: 8904154818627455374}
  m_PrefabAsset: {fileID: 0}
--- !u!1001 &8904154819636857474
PrefabInstance:
  m_ObjectHideFlags: 0
  serializedVersion: 2
  m_Modification:
    m_TransformParent: {fileID: 8904154819331854891}
    m_Modifications:
    - target: {fileID: 6900455468112090754, guid: a551e0ddec790e343b7b704ff9578c35, type: 3}
      propertyPath: m_RootOrder
      value: 3
      objectReference: {fileID: 0}
    - target: {fileID: 6900455468112090754, guid: a551e0ddec790e343b7b704ff9578c35, type: 3}
      propertyPath: m_LocalPosition.x
      value: 1
      objectReference: {fileID: 0}
    - target: {fileID: 6900455468112090754, guid: a551e0ddec790e343b7b704ff9578c35, type: 3}
      propertyPath: m_LocalPosition.y
      value: 0
      objectReference: {fileID: 0}
    - target: {fileID: 6900455468112090754, guid: a551e0ddec790e343b7b704ff9578c35, type: 3}
      propertyPath: m_LocalPosition.z
      value: 0
      objectReference: {fileID: 0}
    - target: {fileID: 6900455468112090754, guid: a551e0ddec790e343b7b704ff9578c35, type: 3}
      propertyPath: m_LocalRotation.w
      value: 1
      objectReference: {fileID: 0}
    - target: {fileID: 6900455468112090754, guid: a551e0ddec790e343b7b704ff9578c35, type: 3}
      propertyPath: m_LocalRotation.x
      value: -0
      objectReference: {fileID: 0}
    - target: {fileID: 6900455468112090754, guid: a551e0ddec790e343b7b704ff9578c35, type: 3}
      propertyPath: m_LocalRotation.y
      value: -0
      objectReference: {fileID: 0}
    - target: {fileID: 6900455468112090754, guid: a551e0ddec790e343b7b704ff9578c35, type: 3}
      propertyPath: m_LocalRotation.z
      value: -0
      objectReference: {fileID: 0}
    - target: {fileID: 6900455468112090754, guid: a551e0ddec790e343b7b704ff9578c35, type: 3}
      propertyPath: m_LocalEulerAnglesHint.x
      value: 0
      objectReference: {fileID: 0}
    - target: {fileID: 6900455468112090754, guid: a551e0ddec790e343b7b704ff9578c35, type: 3}
      propertyPath: m_LocalEulerAnglesHint.y
      value: 0
      objectReference: {fileID: 0}
    - target: {fileID: 6900455468112090754, guid: a551e0ddec790e343b7b704ff9578c35, type: 3}
      propertyPath: m_LocalEulerAnglesHint.z
      value: 0
      objectReference: {fileID: 0}
    - target: {fileID: 6900455468112090755, guid: a551e0ddec790e343b7b704ff9578c35, type: 3}
      propertyPath: useFill
      value: 0
      objectReference: {fileID: 0}
    - target: {fileID: 6900455468112090757, guid: a551e0ddec790e343b7b704ff9578c35, type: 3}
      propertyPath: m_SortingOrder
      value: 1
      objectReference: {fileID: 0}
    - target: {fileID: 6900455468112090758, guid: a551e0ddec790e343b7b704ff9578c35, type: 3}
      propertyPath: m_Name
      value: Block (2)
      objectReference: {fileID: 0}
    m_RemovedComponents: []
  m_SourcePrefab: {fileID: 100100000, guid: a551e0ddec790e343b7b704ff9578c35, type: 3}
--- !u!4 &2617363317918833664 stripped
Transform:
  m_CorrespondingSourceObject: {fileID: 6900455468112090754, guid: a551e0ddec790e343b7b704ff9578c35, type: 3}
  m_PrefabInstance: {fileID: 8904154819636857474}
  m_PrefabAsset: {fileID: 0}
